// Jest Snapshot v1, https://goo.gl/fbAQLP

exports[`Profile actions creates a PROFILE_CHANGED action 1`] = `
Object {
  "payload": Object {
    "key": "email",
    "value": "test@gmail.com",
  },
  "type": "profile_changed",
}
`;
